{
  "Cell": {
    "cm_config": {
      "extraKeys": {
        "Ctrl-B": "goCharLeft",
        "Ctrl-F": "goCharRight",
        "Ctrl-P": "goLineUp",
        "Ctrl-N": "goLineDown",
        "Ctrl-A": "goLineStart",
        "Ctrl-E": "goLineEnd"
      }
    }
  },
  "Notebook": {
    "Toolbar": false,
    "Header": false
  }
}