; ModuleID = 'test4.cc'
source_filename = "test4.cc"
target datalayout = "e-m:e-i64:64-f80:128-n8:16:32:64-S128"
target triple = "x86_64-unknown-linux-gnu"

@m = global i32 0, align 4

; Function Attrs: noinline optnone sspstrong uwtable
define i32 @_Z8fact_reci(i32) #0 {
  %2 = alloca i32, align 4
  %3 = alloca i32, align 4
  store i32 %0, i32* %3, align 4
  %4 = load i32, i32* %3, align 4
  %5 = icmp sle i32 %4, 1
  br i1 %5, label %6, label %7

; <label>:6:                                      ; preds = %1
  store i32 1, i32* %2, align 4
  br label %13

; <label>:7:                                      ; preds = %1
  %8 = load i32, i32* %3, align 4
  %9 = load i32, i32* %3, align 4
  %10 = sub nsw i32 %9, 1
  %11 = call i32 @_Z8fact_reci(i32 %10)
  %12 = mul nsw i32 %8, %11
  store i32 %12, i32* %2, align 4
  br label %13

; <label>:13:                                     ; preds = %7, %6
  %14 = load i32, i32* %2, align 4
  ret i32 %14
}

attributes #0 = { noinline optnone sspstrong uwtable "correctly-rounded-divide-sqrt-fp-math"="false" "disable-tail-calls"="false" "less-precise-fpmad"="false" "no-frame-pointer-elim"="true" "no-frame-pointer-elim-non-leaf" "no-infs-fp-math"="false" "no-jump-tables"="false" "no-nans-fp-math"="false" "no-signed-zeros-fp-math"="false" "no-trapping-math"="false" "stack-protector-buffer-size"="8" "target-cpu"="x86-64" "target-features"="+fxsr,+mmx,+sse,+sse2,+x87" "unsafe-fp-math"="false" "use-soft-float"="false" }

!llvm.module.flags = !{!0, !1, !2}
!llvm.ident = !{!3}

!0 = !{i32 1, !"wchar_size", i32 4}
!1 = !{i32 7, !"PIC Level", i32 2}
!2 = !{i32 7, !"PIE Level", i32 2}
!3 = !{!"clang version 5.0.0 (tags/RELEASE_500/final)"}
